# Blender v2.90.0 OBJ File: ''
# www.blender.org
mtllib POI1.mtl
o Cube
v 1.033879 1.000000 -1.000000
v 1.033879 -1.000000 -1.000000
v 1.033879 1.000000 1.000000
v 1.033879 -1.000000 1.000000
v 0.156407 3.329232 0.178745
v 0.156407 3.329232 -0.178745
v 3.285005 0.570636 -0.140331
v 3.285005 0.289973 -0.140331
v 3.285005 0.570636 0.140331
v 3.285005 0.289973 0.140331
v 1.834329 -3.483374 -0.140090
v 1.834329 -3.483374 0.204454
v 2.012437 -3.483374 -0.140090
v 2.012437 -3.483374 0.204454
v 0.924372 -0.061147 -1.183001
v 1.033879 0.000000 1.205605
v 3.285005 0.430304 -0.140331
v 3.285005 0.430304 0.140331
v -1.033879 1.000000 -1.000000
v -1.033879 -1.000000 -1.000000
v -1.033879 1.000000 1.000000
v -1.033879 -1.000000 1.000000
v 0.000000 1.000000 -1.000000
v 0.000000 -1.000000 -1.000000
v 0.000000 1.000000 1.000000
v 0.000000 -1.000000 1.000000
v -0.156407 3.329232 0.178745
v 0.000000 3.329232 0.178745
v -0.156407 3.329232 -0.178745
v 0.000000 3.329232 -0.178745
v -3.285005 0.570636 -0.140331
v -3.285005 0.289973 -0.140331
v -3.285005 0.570636 0.140331
v -3.285005 0.289973 0.140331
v -1.834329 -3.483374 -0.140090
v -1.834329 -3.483374 0.204454
v -2.012437 -3.483374 -0.140090
v -2.012437 -3.483374 0.204454
v -0.924372 -0.061147 -1.183001
v 0.000000 0.000000 1.205605
v -1.033879 0.000000 1.205605
v 0.000000 -0.061147 -1.183001
v -3.285005 0.430304 -0.140331
v -3.285005 0.430304 0.140331
vt 0.926674 0.763733
vt 0.926674 0.794338
vt 0.926674 0.794338
vt 0.523871 0.735347
vt 0.508569 0.765951
vt 0.508569 0.735347
vt 0.957279 0.763733
vt 0.926674 0.763733
vt 0.850163 0.702525
vt 0.850163 0.702525
vt 0.850163 0.702525
vt 0.911372 0.763733
vt 0.911372 0.763733
vt 0.535777 0.687545
vt 0.520474 0.718149
vt 0.520474 0.687545
vt 0.926674 0.733129
vt 0.926674 0.824942
vt 0.926674 0.824942
vt 0.926674 0.763733
vt 0.911372 0.794338
vt 0.896070 0.794338
vt 0.896070 0.763733
vt 0.896070 0.794338
vt 0.911372 0.794338
vt 0.896070 0.763733
vt 0.865465 0.794338
vt 0.865465 0.763733
vt 0.896070 0.763733
vt 0.896070 0.733129
vt 0.896070 0.733129
vt 0.878212 0.746072
vt 0.878212 0.776677
vt 0.878212 0.746072
vt 0.926674 0.794338
vt 0.505172 0.687545
vt 0.505172 0.718149
vt 0.490711 0.687081
vt 0.475409 0.717686
vt 0.475409 0.687081
vt 0.926674 0.794338
vt 0.926674 0.763733
vt 0.926674 0.794338
vt 0.523871 0.735347
vt 0.508569 0.735347
vt 0.926674 0.763733
vt 0.850163 0.702525
vt 0.850163 0.702525
vt 0.911372 0.763733
vt 0.911372 0.763733
vt 0.520474 0.718149
vt 0.911372 0.794338
vt 0.926674 0.763733
vt 0.896070 0.794338
vt 0.896070 0.763733
vt 0.896070 0.794338
vt 0.911372 0.794338
vt 0.865465 0.794338
vt 0.896070 0.763733
vt 0.865465 0.763733
vt 0.896070 0.733129
vt 0.878212 0.746072
vt 0.878212 0.776677
vt 0.878212 0.776677
vt 0.896070 0.763733
vt 0.490711 0.687081
vt 0.475409 0.687081
vt 0.523871 0.765951
vt 0.957279 0.794338
vt 0.535777 0.718149
vt 0.926674 0.733129
vt 0.896070 0.794338
vt 0.490711 0.717686
vt 0.850163 0.702525
vt 0.535777 0.718149
vt 0.926674 0.794338
vt 0.896070 0.794338
vt 0.878212 0.746072
vt 0.505172 0.718149
vn 0.9358 0.3525 0.0000
vn 0.0000 0.2014 0.9795
vn 0.0000 1.0000 0.0000
vn -0.8044 -0.5941 0.0000
vn 0.3803 0.1189 -0.9172
vn 0.0000 0.1699 -0.9855
vn 0.0000 0.3325 -0.9431
vn 0.0000 0.3325 0.9431
vn 1.0000 0.0000 0.0000
vn 0.4972 -0.8676 0.0000
vn 0.1874 0.9823 0.0000
vn 0.4277 0.0000 0.9039
vn 0.0000 -1.0000 0.0000
vn 0.9304 0.3666 0.0000
vn 0.0000 -0.3272 -0.9450
vn 0.0000 -0.3051 0.9523
vn 0.3568 0.0000 0.9342
vn 0.0000 -0.1913 -0.9815
vn 0.4165 -0.1269 -0.9002
vn 0.0000 -0.2014 0.9795
vn -0.9358 0.3525 0.0000
vn 0.8044 -0.5941 0.0000
vn -0.3803 0.1189 -0.9172
vn -1.0000 0.0000 0.0000
vn -0.4972 -0.8676 0.0000
vn -0.1874 0.9823 0.0000
vn -0.4396 -0.1809 0.8798
vn -0.9304 0.3666 0.0000
vn -0.3912 0.1853 0.9015
vn -0.4165 -0.1269 -0.9002
vn 0.3568 0.0000 -0.9342
vn 0.4396 -0.1809 0.8798
vn 0.3912 0.1853 0.9015
vn 0.4040 0.0000 -0.9147
vn -0.3568 0.0000 -0.9342
vn -0.4277 0.0000 0.9039
vn -0.3568 0.0000 0.9342
vn -0.4040 0.0000 -0.9147
usemtl Material
s off
f 1/1/1 5/2/1 3/3/1
f 3/4/2 40/5/2 16/6/2
f 30/7/3 5/2/3 6/8/3
f 26/9/4 11/10/4 12/11/4
f 1/1/5 17/12/5 15/13/5
f 23/14/6 15/15/6 42/16/6
f 23/17/7 6/8/7 1/1/7
f 25/18/8 5/2/8 28/19/8
f 7/20/9 18/21/9 17/12/9
f 4/22/10 8/23/10 10/24/10
f 3/3/11 7/20/11 1/1/11
f 16/25/12 10/24/12 18/21/12
f 13/26/13 12/27/13 11/28/13
f 4/22/14 13/26/14 2/29/14
f 2/29/15 11/30/15 24/31/15
f 4/32/16 12/33/16 14/34/16
f 3/3/17 18/21/17 9/35/17
f 17/12/9 10/24/9 8/23/9
f 24/36/18 15/15/18 2/37/18
f 15/13/19 8/23/19 2/29/19
f 16/38/20 26/39/20 4/40/20
f 27/41/21 19/42/21 21/43/21
f 40/5/2 21/44/2 41/45/2
f 27/41/3 30/7/3 29/46/3
f 26/9/22 35/47/22 24/48/22
f 43/49/23 19/42/23 39/50/23
f 39/51/6 23/14/6 42/16/6
f 29/46/7 23/17/7 19/42/7
f 25/18/8 27/41/8 21/43/8
f 44/52/24 31/53/24 43/49/24
f 34/54/25 20/55/25 22/56/25
f 31/53/26 21/43/26 19/42/26
f 41/57/27 34/54/27 22/56/27
f 36/58/13 37/59/13 35/60/13
f 37/59/28 22/56/28 20/55/28
f 35/61/15 20/55/15 24/31/15
f 22/62/16 36/63/16 26/64/16
f 21/43/29 44/52/29 41/57/29
f 34/54/24 43/49/24 32/65/24
f 24/36/18 39/51/18 42/16/18
f 32/65/30 39/50/30 20/55/30
f 26/39/20 41/66/20 22/67/20
f 1/1/1 6/8/1 5/2/1
f 3/4/2 25/68/2 40/5/2
f 30/7/3 28/69/3 5/2/3
f 26/9/4 24/48/4 11/10/4
f 1/1/31 7/20/31 17/12/31
f 23/14/6 1/70/6 15/15/6
f 23/17/7 30/71/7 6/8/7
f 25/18/8 3/3/8 5/2/8
f 7/20/9 9/35/9 18/21/9
f 4/22/10 2/29/10 8/23/10
f 3/3/11 9/35/11 7/20/11
f 16/25/32 4/22/32 10/24/32
f 13/26/13 14/72/13 12/27/13
f 4/22/14 14/72/14 13/26/14
f 2/29/15 13/26/15 11/30/15
f 4/32/16 26/64/16 12/33/16
f 3/3/33 16/25/33 18/21/33
f 17/12/9 18/21/9 10/24/9
f 24/36/18 42/16/18 15/15/18
f 15/13/34 17/12/34 8/23/34
f 16/38/20 40/73/20 26/39/20
f 27/41/21 29/46/21 19/42/21
f 40/5/2 25/68/2 21/44/2
f 27/41/3 28/69/3 30/7/3
f 26/9/22 36/74/22 35/47/22
f 43/49/35 31/53/35 19/42/35
f 39/51/6 19/75/6 23/14/6
f 29/46/7 30/71/7 23/17/7
f 25/18/8 28/19/8 27/41/8
f 44/52/24 33/76/24 31/53/24
f 34/54/25 32/65/25 20/55/25
f 31/53/26 33/76/26 21/43/26
f 41/57/36 44/52/36 34/54/36
f 36/58/13 38/77/13 37/59/13
f 37/59/28 38/77/28 22/56/28
f 35/61/15 37/59/15 20/55/15
f 22/62/16 38/78/16 36/63/16
f 21/43/37 33/76/37 44/52/37
f 34/54/24 44/52/24 43/49/24
f 24/36/18 20/79/18 39/51/18
f 32/65/38 43/49/38 39/50/38
f 26/39/20 40/73/20 41/66/20
