# Blender v2.90.0 OBJ File: ''
# www.blender.org
mtllib sun1.mtl
o Icosphere_Icosphere.002
v 0.000000 -1.000000 0.000000
v 0.723607 -0.447220 0.525725
v -0.276388 -0.447220 0.850649
v -0.894426 -0.447216 0.000000
v -0.276388 -0.447220 -0.850649
v 0.723607 -0.447220 -0.525725
v 0.276388 0.447220 0.850649
v -0.723607 0.447220 0.525725
v -0.723607 0.447220 -0.525725
v 0.276388 0.447220 -0.850649
v 0.894426 0.447216 0.000000
v 0.000000 1.000000 0.000000
v -0.162456 -0.850654 0.499995
v 0.425323 -0.850654 0.309011
v 0.262869 -0.525738 0.809012
v 0.850648 -0.525736 0.000000
v 0.425323 -0.850654 -0.309011
v -0.525730 -0.850652 0.000000
v -0.688189 -0.525736 0.499997
v -0.162456 -0.850654 -0.499995
v -0.688189 -0.525736 -0.499997
v 0.262869 -0.525738 -0.809012
v 0.951058 0.000000 0.309013
v 0.951058 0.000000 -0.309013
v 0.000000 0.000000 1.000000
v 0.587786 0.000000 0.809017
v -0.951058 0.000000 0.309013
v -0.587786 0.000000 0.809017
v -0.587786 0.000000 -0.809017
v -0.951058 0.000000 -0.309013
v 0.587786 0.000000 -0.809017
v 0.000000 0.000000 -1.000000
v 0.688189 0.525736 0.499997
v -0.262869 0.525738 0.809012
v -0.850648 0.525736 0.000000
v -0.262869 0.525738 -0.809012
v 0.688189 0.525736 -0.499997
v 0.162456 0.850654 0.499995
v 0.525730 0.850652 0.000000
v -0.425323 0.850654 0.309011
v -0.425323 0.850654 -0.309011
v 0.162456 0.850654 -0.499995
v -0.000000 0.168842 -2.324481
v -0.000000 -0.108979 -2.328056
v 0.000000 -0.083473 -1.397879
v 0.000000 0.083473 -1.397879
v 0.272713 -0.083473 -1.371019
v 0.272713 0.083473 -1.371019
v 0.534945 -0.083473 -1.291472
v 0.534945 0.083473 -1.291472
v 0.776620 -0.083473 -1.162294
v 0.776620 0.083473 -1.162294
v 0.988450 -0.083473 -0.988450
v 0.988450 0.083473 -0.988450
v 1.162294 -0.083473 -0.776620
v 1.162294 0.083473 -0.776620
v 1.291472 -0.083473 -0.534945
v 1.291472 0.083473 -0.534945
v 1.371019 -0.083473 -0.272713
v 1.371019 0.083473 -0.272713
v 1.397879 -0.083473 0.000000
v 1.397879 0.083473 0.000000
v 1.371019 -0.083473 0.272713
v 1.371019 0.083473 0.272713
v 1.291472 -0.083473 0.534945
v 1.291472 0.083473 0.534945
v 1.162294 -0.083473 0.776620
v 1.162294 0.083473 0.776620
v 0.988450 -0.083473 0.988450
v 0.988450 0.083473 0.988450
v 0.776620 -0.083473 1.162294
v 0.776620 0.083473 1.162294
v 0.534945 -0.083473 1.291472
v 0.534945 0.083473 1.291472
v 0.272712 -0.083473 1.371019
v 0.272712 0.083473 1.371019
v -0.000000 -0.083473 1.397879
v -0.000000 0.083473 1.397879
v -0.272713 -0.083473 1.371019
v -0.272713 0.083473 1.371019
v -0.534946 -0.083473 1.291472
v -0.534946 0.083473 1.291472
v -0.776621 -0.083473 1.162294
v -0.776621 0.083473 1.162294
v -0.988451 -0.083473 0.988450
v -0.988451 0.083473 0.988450
v -1.162295 -0.083473 0.776620
v -1.162295 0.083473 0.776620
v -1.291473 -0.083473 0.534944
v -1.291473 0.083473 0.534944
v -1.371020 -0.083473 0.272712
v -1.371020 0.083473 0.272712
v -1.397879 -0.083473 -0.000001
v -1.397879 0.083473 -0.000001
v -1.371019 -0.083473 -0.272714
v -1.371019 0.083473 -0.272714
v -1.291471 -0.083473 -0.534947
v -1.291471 0.083473 -0.534947
v -1.162293 -0.083473 -0.776621
v -1.162293 0.083473 -0.776621
v -0.988449 -0.083473 -0.988451
v -0.988449 0.083473 -0.988451
v -0.776619 -0.083473 -1.162295
v -0.776619 0.083473 -1.162295
v -0.534943 -0.083473 -1.291473
v -0.534943 0.083473 -1.291473
v -0.272711 -0.083473 -1.371020
v -0.272711 0.083473 -1.371020
v 0.453870 -0.109554 -2.283357
v 0.453870 0.168267 -2.279782
v 0.890298 -0.111257 -2.150979
v 0.890298 0.166564 -2.147404
v 1.292513 -0.114023 -1.936008
v 1.292513 0.163798 -1.932434
v 1.645056 -0.117746 -1.646707
v 1.645056 0.160075 -1.643133
v 1.934382 -0.122281 -1.294193
v 1.934382 0.155539 -1.290618
v 2.149369 -0.127456 -0.892012
v 2.149369 0.150365 -0.888437
v 2.281759 -0.133071 -0.455620
v 2.281759 0.144750 -0.452045
v 2.326461 -0.138910 -0.001787
v 2.326461 0.138910 0.001788
v 2.281759 -0.144750 0.452045
v 2.281759 0.133071 0.455620
v 2.149370 -0.150365 0.888437
v 2.149370 0.127456 0.892012
v 1.934382 -0.155539 1.290619
v 1.934382 0.122282 1.294193
v 1.645056 -0.160075 1.643134
v 1.645056 0.117746 1.646708
v 1.292512 -0.163797 1.932435
v 1.292512 0.114023 1.936010
v 0.890298 -0.166563 2.147406
v 0.890298 0.111258 2.150980
v 0.453869 -0.168267 2.279783
v 0.453869 0.109554 2.283358
v -0.000001 -0.168842 2.324482
v -0.000001 0.108979 2.328056
v -0.453871 -0.168267 2.279783
v -0.453871 0.109554 2.283358
v -0.890299 -0.166563 2.147405
v -0.890299 0.111257 2.150979
v -1.292514 -0.163797 1.932434
v -1.292514 0.114023 1.936009
v -1.645058 -0.160075 1.643132
v -1.645058 0.117746 1.646707
v -1.934383 -0.155540 1.290617
v -1.934383 0.122281 1.294192
v -2.149371 -0.150365 0.888436
v -2.149371 0.127456 0.892010
v -2.281760 -0.144750 0.452044
v -2.281760 0.133071 0.455618
v -2.326461 -0.138910 -0.001789
v -2.326461 0.138911 0.001786
v -2.281759 -0.133071 -0.455622
v -2.281759 0.144750 -0.452047
v -2.149369 -0.127456 -0.892014
v -2.149369 0.150365 -0.888439
v -1.934380 -0.122281 -1.294195
v -1.934380 0.155540 -1.290620
v -1.645054 -0.117745 -1.646709
v -1.645054 0.160075 -1.643135
v -1.292510 -0.114023 -1.936010
v -1.292510 0.163798 -1.932436
v -0.890295 -0.111257 -2.150980
v -0.890295 0.166564 -2.147406
v -0.453867 -0.109554 -2.283358
v -0.453867 0.168267 -2.279783
v 1.138157 -0.011152 -1.294897
v 1.130171 -0.216229 -1.283838
v 1.360560 -0.211912 -1.037425
v 1.368546 -0.006835 -1.048484
v 1.538511 -0.203393 -0.750932
v 1.546496 0.001685 -0.761990
v 1.657184 -0.190997 -0.435368
v 1.665169 0.014081 -0.446426
v 1.712018 -0.175202 -0.102861
v 1.720004 0.029876 -0.113920
v 1.700908 -0.156614 0.233812
v 1.708893 0.048463 0.222753
v 1.624278 -0.135949 0.561712
v 1.632264 0.069129 0.550653
v 1.485076 -0.113999 0.868238
v 1.493061 0.091079 0.857179
v 1.288649 -0.091609 1.141610
v 1.296635 0.113468 1.130552
v 1.042547 -0.069639 1.371324
v 1.050532 0.135438 1.360265
v 0.756227 -0.048934 1.548551
v 0.764212 0.156144 1.537492
v 0.440692 -0.030288 1.666480
v 0.448677 0.174790 1.655422
v 0.108068 -0.014419 1.720581
v 0.116053 0.190659 1.709522
v -0.228863 -0.001936 1.708772
v -0.220877 0.203141 1.697714
v -0.557152 0.006680 1.631509
v -0.549167 0.211758 1.620450
v -0.864183 0.011099 1.491760
v -0.856198 0.216177 1.480702
v -1.138158 0.011152 1.294897
v -1.130172 0.216230 1.283838
v -1.368547 0.006835 1.048483
v -1.360562 0.211913 1.037425
v -1.546497 -0.001685 0.761990
v -1.538512 0.203393 0.750931
v -1.665170 -0.014081 0.446426
v -1.657185 0.190997 0.435367
v -1.720005 -0.029876 0.113918
v -1.712019 0.175202 0.102860
v -1.708894 -0.048464 -0.222754
v -1.700908 0.156614 -0.233813
v -1.632264 -0.069129 -0.550654
v -1.624279 0.135949 -0.561713
v -1.493061 -0.091079 -0.857180
v -1.485076 0.113999 -0.868239
v -1.296634 -0.113469 -1.130553
v -1.288649 0.091609 -1.141611
v -1.050532 -0.135439 -1.360266
v -1.042546 0.069639 -1.371325
v -0.764211 -0.156144 -1.537493
v -0.756226 0.048934 -1.548552
v -0.448676 -0.174790 -1.655422
v -0.440690 0.030288 -1.666481
v -0.116052 -0.190659 -1.709522
v -0.108066 0.014419 -1.720581
v 0.220879 -0.203141 -1.697713
v 0.228864 0.001937 -1.708772
v 0.549168 -0.211758 -1.620450
v 0.557153 -0.006680 -1.631508
v 0.856199 -0.216177 -1.480700
v 0.864184 -0.011099 -1.491759
v 0.466513 -0.256277 -2.032853
v 0.483582 -0.006636 -2.044971
v 0.855007 -0.276369 -1.899575
v 0.872075 -0.026728 -1.911693
v 1.210315 -0.290637 -1.693065
v 1.227384 -0.040996 -1.705183
v 1.518784 -0.298533 -1.421258
v 1.535852 -0.048892 -1.433377
v 1.768559 -0.299753 -1.094601
v 1.785627 -0.050112 -1.106720
v 1.950040 -0.294251 -0.725646
v 1.967109 -0.044610 -0.737764
v 2.056255 -0.282238 -0.328572
v 2.073323 -0.032597 -0.340690
v 2.083122 -0.264175 0.081362
v 2.100190 -0.014534 0.069244
v 2.029607 -0.240757 0.488402
v 2.046675 0.008884 0.476284
v 1.897767 -0.212883 0.876906
v 1.914835 0.036757 0.864788
v 1.692669 -0.181625 1.231944
v 1.709738 0.068015 1.219825
v 1.422196 -0.148185 1.539872
v 1.439264 0.101456 1.527753
v 1.096739 -0.113846 1.788856
v 1.113808 0.135795 1.776738
v 0.728808 -0.079929 1.969329
v 0.745877 0.169712 1.957210
v 0.332541 -0.047738 2.074353
v 0.349610 0.201903 2.062235
v -0.076833 -0.018508 2.099895
v -0.059765 0.231133 2.087776
v -0.483583 0.006636 2.044972
v -0.466514 0.256277 2.032853
v -0.872077 0.026728 1.911694
v -0.855008 0.276369 1.899575
v -1.227385 0.040996 1.705183
v -1.210317 0.290637 1.693065
v -1.535853 0.048892 1.433377
v -1.518785 0.298533 1.421258
v -1.785628 0.050113 1.106719
v -1.768559 0.299753 1.094601
v -1.967109 0.044610 0.737764
v -1.950041 0.294251 0.725645
v -2.073324 0.032597 0.340689
v -2.056256 0.282237 0.328571
v -2.100190 0.014534 -0.069245
v -2.083122 0.264174 -0.081364
v -2.046675 -0.008884 -0.476285
v -2.029606 0.240756 -0.488404
v -1.914835 -0.036758 -0.864789
v -1.897766 0.212883 -0.876908
v -1.709737 -0.068016 -1.219827
v -1.692668 0.181625 -1.231945
v -1.439262 -0.101456 -1.527755
v -1.422194 0.148185 -1.539873
v -1.113806 -0.135795 -1.776738
v -1.096737 0.113846 -1.788857
v -0.745874 -0.169712 -1.957210
v -0.728806 0.079929 -1.969329
v -0.349607 -0.201903 -2.062235
v -0.332539 0.047737 -2.074353
v 0.059767 -0.231133 -2.087775
v 0.076835 0.018508 -2.099894
vt 0.114701 0.473536
vt 0.111354 0.479334
vt 0.118048 0.479334
vt 0.108006 0.485131
vt 0.104659 0.479334
vt 0.101312 0.485131
vt 0.061144 0.473536
vt 0.057797 0.479334
vt 0.064491 0.479334
vt 0.074533 0.473536
vt 0.071186 0.479334
vt 0.077880 0.479334
vt 0.087922 0.473536
vt 0.084575 0.479334
vt 0.091270 0.479334
vt 0.104659 0.490929
vt 0.121396 0.485131
vt 0.114701 0.485131
vt 0.118048 0.490929
vt 0.067838 0.485131
vt 0.061144 0.485131
vt 0.064491 0.490929
vt 0.081228 0.485131
vt 0.074533 0.485131
vt 0.077880 0.490929
vt 0.094617 0.485131
vt 0.087922 0.485131
vt 0.091270 0.490929
vt 0.111354 0.490929
vt 0.124743 0.490929
vt 0.071186 0.490929
vt 0.084575 0.490929
vt 0.097964 0.490929
vt 0.114701 0.496727
vt 0.108006 0.496727
vt 0.111354 0.502525
vt 0.128090 0.496727
vt 0.121396 0.496727
vt 0.124743 0.502525
vt 0.074533 0.496727
vt 0.067839 0.496727
vt 0.071186 0.502525
vt 0.087922 0.496727
vt 0.081228 0.496727
vt 0.084575 0.502525
vt 0.101312 0.496727
vt 0.094617 0.496727
vt 0.097964 0.502525
vt 0.091270 0.502525
vt 0.094617 0.508322
vt 0.077880 0.502525
vt 0.081228 0.508322
vt 0.064491 0.502525
vt 0.067838 0.508322
vt 0.061144 0.496727
vt 0.118048 0.502525
vt 0.121396 0.508322
vt 0.104659 0.502525
vt 0.108006 0.508322
vt 0.057797 0.490929
vt 0.054449 0.485131
vt 0.097964 0.479334
vt 0.101312 0.473536
vt 0.106836 0.577703
vt 0.105137 0.550517
vt 0.106836 0.550517
vt 0.055862 0.550517
vt 0.054163 0.577703
vt 0.054163 0.550517
vt 0.245158 0.620855
vt 0.243228 0.589983
vt 0.245158 0.589983
vt 0.054358 0.507348
vt 0.052427 0.538254
vt 0.052427 0.507348
vt 0.243228 0.620855
vt 0.241299 0.589983
vt 0.108536 0.577703
vt 0.108536 0.550517
vt 0.056290 0.538254
vt 0.056290 0.507348
vt 0.241299 0.620855
vt 0.239369 0.589983
vt 0.103438 0.577703
vt 0.101739 0.550517
vt 0.103438 0.550517
vt 0.058222 0.538254
vt 0.058222 0.507348
vt 0.239369 0.620855
vt 0.237440 0.589983
vt 0.100040 0.577703
vt 0.100040 0.550517
vt 0.060153 0.538254
vt 0.060153 0.507348
vt 0.237440 0.620855
vt 0.235510 0.589983
vt 0.098341 0.550517
vt 0.062085 0.538254
vt 0.062085 0.507348
vt 0.235510 0.620855
vt 0.233581 0.589983
vt 0.098341 0.577703
vt 0.096642 0.550517
vt 0.064017 0.538254
vt 0.064017 0.507348
vt 0.233581 0.620855
vt 0.231651 0.589983
vt 0.094942 0.577703
vt 0.094942 0.550517
vt 0.065948 0.538254
vt 0.065948 0.507348
vt 0.231651 0.620855
vt 0.229722 0.589983
vt 0.093243 0.550517
vt 0.067880 0.538254
vt 0.067880 0.507348
vt 0.229722 0.620855
vt 0.227792 0.589983
vt 0.093243 0.577703
vt 0.091544 0.550517
vt 0.069812 0.538254
vt 0.069812 0.507348
vt 0.227792 0.620855
vt 0.225863 0.589983
vt 0.091544 0.577703
vt 0.089845 0.550517
vt 0.071743 0.538254
vt 0.071743 0.507348
vt 0.225863 0.620855
vt 0.223933 0.589983
vt 0.089845 0.577703
vt 0.088146 0.550517
vt 0.073675 0.538254
vt 0.073675 0.507348
vt 0.223933 0.620855
vt 0.222004 0.589983
vt 0.088146 0.577703
vt 0.086447 0.550517
vt 0.075607 0.507348
vt 0.222004 0.620855
vt 0.220074 0.589983
vt 0.084747 0.577703
vt 0.084747 0.550517
vt 0.077538 0.538254
vt 0.077538 0.507348
vt 0.220074 0.620855
vt 0.218145 0.589983
vt 0.083048 0.550517
vt 0.079470 0.538254
vt 0.079470 0.507348
vt 0.218145 0.620855
vt 0.216215 0.589983
vt 0.083048 0.577703
vt 0.081349 0.550517
vt 0.081402 0.507348
vt 0.216215 0.620855
vt 0.214286 0.589983
vt 0.081349 0.577703
vt 0.079650 0.550517
vt 0.083333 0.507348
vt 0.081402 0.538254
vt 0.214286 0.620855
vt 0.212356 0.589983
vt 0.079650 0.577703
vt 0.077951 0.550517
vt 0.085265 0.538254
vt 0.085265 0.507348
vt 0.212356 0.620855
vt 0.210427 0.589983
vt 0.076252 0.577703
vt 0.076252 0.550517
vt 0.087196 0.507348
vt 0.210427 0.620855
vt 0.208497 0.589983
vt 0.074553 0.577703
vt 0.074553 0.550517
vt 0.089128 0.538254
vt 0.089128 0.507348
vt 0.208497 0.620855
vt 0.206568 0.589983
vt 0.072853 0.577703
vt 0.072853 0.550517
vt 0.091060 0.538254
vt 0.091060 0.507348
vt 0.206568 0.620855
vt 0.204638 0.589983
vt 0.071154 0.550517
vt 0.092991 0.538254
vt 0.092991 0.507348
vt 0.204638 0.620855
vt 0.202709 0.589983
vt 0.069455 0.577703
vt 0.069455 0.550517
vt 0.094923 0.538254
vt 0.094923 0.507348
vt 0.202709 0.620855
vt 0.200779 0.589983
vt 0.067756 0.577703
vt 0.067756 0.550517
vt 0.096855 0.538254
vt 0.096855 0.507348
vt 0.200779 0.620855
vt 0.198850 0.589983
vt 0.066057 0.577703
vt 0.066057 0.550517
vt 0.098786 0.538254
vt 0.098786 0.507348
vt 0.198850 0.620855
vt 0.196920 0.589983
vt 0.064358 0.550517
vt 0.100718 0.538254
vt 0.100718 0.507348
vt 0.196920 0.620855
vt 0.194990 0.589983
vt 0.062658 0.577703
vt 0.062658 0.550517
vt 0.102650 0.538254
vt 0.102650 0.507348
vt 0.194990 0.620855
vt 0.193061 0.589983
vt 0.060959 0.550517
vt 0.104581 0.538254
vt 0.104581 0.507348
vt 0.193061 0.620855
vt 0.191131 0.589983
vt 0.060959 0.577703
vt 0.059260 0.550517
vt 0.106513 0.507348
vt 0.191131 0.620855
vt 0.189202 0.589983
vt 0.059260 0.577703
vt 0.057561 0.550517
vt 0.108445 0.507348
vt 0.106513 0.538254
vt 0.189202 0.620855
vt 0.187272 0.589983
vt 0.114240 0.538254
vt 0.112308 0.507348
vt 0.114240 0.507348
vt 0.110376 0.538254
vt 0.110376 0.507348
vt 0.187272 0.620855
vt 0.185343 0.589983
vt 0.057561 0.577703
vt 0.185343 0.620855
vt 0.183413 0.589983
vt 0.112308 0.538254
vt 0.259268 0.561341
vt 0.257201 0.594418
vt 0.257201 0.561341
vt 0.255133 0.594418
vt 0.255133 0.561341
vt 0.253066 0.594418
vt 0.253066 0.561341
vt 0.250998 0.594418
vt 0.250998 0.561341
vt 0.248931 0.561341
vt 0.248931 0.594418
vt 0.246864 0.561341
vt 0.246864 0.594418
vt 0.244796 0.561341
vt 0.244796 0.594418
vt 0.242729 0.561341
vt 0.242729 0.594418
vt 0.240662 0.561341
vt 0.240662 0.594418
vt 0.238594 0.561341
vt 0.236527 0.594418
vt 0.236527 0.561341
vt 0.234460 0.561341
vt 0.234460 0.594418
vt 0.232392 0.561341
vt 0.230325 0.594418
vt 0.230325 0.561341
vt 0.228258 0.561341
vt 0.228258 0.594418
vt 0.226190 0.561341
vt 0.224123 0.594418
vt 0.224123 0.561341
vt 0.222056 0.561341
vt 0.222056 0.594418
vt 0.219988 0.561341
vt 0.219988 0.594418
vt 0.217921 0.561341
vt 0.215854 0.594418
vt 0.215854 0.561341
vt 0.213786 0.561341
vt 0.213786 0.594418
vt 0.211719 0.561341
vt 0.211719 0.594418
vt 0.209652 0.561341
vt 0.207584 0.594418
vt 0.207584 0.561341
vt 0.205517 0.561341
vt 0.205517 0.594418
vt 0.203450 0.561341
vt 0.203450 0.594418
vt 0.201382 0.561341
vt 0.201382 0.594418
vt 0.199315 0.561341
vt 0.197248 0.594418
vt 0.197248 0.561341
vt 0.195180 0.594418
vt 0.195180 0.561341
vt 0.193113 0.561341
vt 0.105137 0.577703
vt 0.055862 0.577703
vt 0.054358 0.538254
vt 0.101739 0.577703
vt 0.096642 0.577703
vt 0.086447 0.577703
vt 0.075607 0.538254
vt 0.083333 0.538254
vt 0.077951 0.577703
vt 0.087196 0.538254
vt 0.071154 0.577703
vt 0.064358 0.577703
vt 0.108445 0.538254
vt 0.183413 0.620855
vt 0.259268 0.594418
vt 0.238594 0.594418
vt 0.232392 0.594418
vt 0.226190 0.594418
vt 0.217921 0.594418
vt 0.209652 0.594418
vt 0.199315 0.594418
vt 0.193113 0.594418
vn 0.1024 -0.9435 0.3151
vn 0.7002 -0.6617 0.2680
vn -0.2680 -0.9435 0.1947
vn -0.2680 -0.9435 -0.1947
vn 0.1024 -0.9435 -0.3151
vn 0.9050 -0.3304 0.2680
vn 0.0247 -0.3304 0.9435
vn -0.8897 -0.3304 0.3151
vn -0.5746 -0.3304 -0.7488
vn 0.5346 -0.3304 -0.7779
vn 0.8026 -0.1256 0.5831
vn -0.3066 -0.1256 0.9435
vn -0.9921 -0.1256 0.0000
vn -0.3066 -0.1256 -0.9435
vn 0.8026 -0.1256 -0.5831
vn 0.4089 0.6617 0.6284
vn -0.4713 0.6617 0.5831
vn -0.7002 0.6617 -0.2680
vn 0.0385 0.6617 -0.7488
vn 0.7240 0.6617 -0.1947
vn 0.2680 0.9435 -0.1947
vn 0.4911 0.7947 -0.3568
vn 0.4089 0.6617 -0.6284
vn -0.1024 0.9435 -0.3151
vn -0.1876 0.7947 -0.5773
vn -0.4713 0.6617 -0.5831
vn -0.3313 0.9435 0.0000
vn -0.6071 0.7947 0.0000
vn -0.7002 0.6617 0.2680
vn -0.1024 0.9435 0.3151
vn -0.1876 0.7947 0.5773
vn 0.0385 0.6617 0.7488
vn 0.2680 0.9435 0.1947
vn 0.4911 0.7947 0.3568
vn 0.7240 0.6617 0.1947
vn 0.8897 0.3304 -0.3151
vn 0.7947 0.1876 -0.5773
vn 0.5746 0.3304 -0.7488
vn -0.0247 0.3304 -0.9435
vn -0.3035 0.1876 -0.9342
vn -0.5346 0.3304 -0.7779
vn -0.9050 0.3304 -0.2680
vn -0.9822 0.1876 0.0000
vn -0.9050 0.3304 0.2680
vn -0.5346 0.3304 0.7779
vn -0.3035 0.1876 0.9342
vn -0.0247 0.3304 0.9435
vn 0.5746 0.3304 0.7488
vn 0.7947 0.1876 0.5773
vn 0.8897 0.3304 0.3151
vn 0.3066 0.1256 -0.9435
vn 0.3035 -0.1876 -0.9342
vn 0.0247 -0.3304 -0.9435
vn -0.8026 0.1256 -0.5831
vn -0.7947 -0.1876 -0.5773
vn -0.8897 -0.3304 -0.3151
vn -0.8026 0.1256 0.5831
vn -0.7947 -0.1876 0.5773
vn -0.5746 -0.3304 0.7488
vn 0.3066 0.1256 0.9435
vn 0.3035 -0.1876 0.9342
vn 0.5346 -0.3304 0.7779
vn 0.9921 0.1256 0.0000
vn 0.9822 -0.1876 0.0000
vn 0.9050 -0.3304 -0.2680
vn 0.4713 -0.6617 -0.5831
vn 0.1876 -0.7947 -0.5773
vn -0.0385 -0.6617 -0.7488
vn -0.4089 -0.6617 -0.6284
vn -0.4911 -0.7947 -0.3568
vn -0.7240 -0.6617 -0.1947
vn -0.7240 -0.6617 0.1947
vn -0.4911 -0.7947 0.3568
vn -0.4089 -0.6617 0.6284
vn 0.7002 -0.6617 -0.2680
vn 0.6071 -0.7947 0.0000
vn 0.3313 -0.9435 0.0000
vn -0.0385 -0.6617 0.7488
vn 0.1876 -0.7947 0.5773
vn 0.4713 -0.6617 0.5831
vn 0.8487 -0.0614 -0.5253
vn 0.5822 -0.0664 -0.8103
vn 0.0980 0.0000 -0.9952
vn -0.0980 0.0128 -0.9951
vn 0.2903 0.0000 -0.9569
vn 0.7295 -0.0651 -0.6809
vn -0.2903 0.0123 -0.9569
vn 0.4714 0.0000 -0.8819
vn 0.9859 -0.0470 -0.1604
vn -0.4714 0.0113 -0.8818
vn 0.6344 0.0000 -0.7730
vn 0.9987 -0.0370 0.0350
vn -0.6344 0.0099 -0.7729
vn 0.7730 0.0000 -0.6344
vn 0.9731 -0.0255 0.2290
vn -0.7730 0.0082 -0.6343
vn 0.8819 0.0000 -0.4714
vn 0.9101 -0.0131 0.4142
vn -0.8819 0.0061 -0.4714
vn 0.9569 0.0000 -0.2903
vn 0.8121 -0.0002 0.5835
vn -0.9569 0.0037 -0.2903
vn 0.9952 0.0000 -0.0980
vn 0.6829 0.0128 0.7304
vn -0.9952 0.0013 -0.0980
vn 0.9952 0.0000 0.0980
vn 0.5275 0.0253 0.8492
vn -0.9952 -0.0013 0.0980
vn 0.9569 0.0000 0.2903
vn 0.3518 0.0367 0.9354
vn -0.9569 -0.0037 0.2903
vn 0.8819 0.0000 0.4714
vn 0.1625 0.0468 0.9856
vn -0.8819 -0.0061 0.4714
vn 0.7730 0.0000 0.6344
vn -0.0329 0.0551 0.9979
vn -0.7730 -0.0082 0.6343
vn 0.6344 0.0000 0.7730
vn -0.2271 0.0613 0.9719
vn -0.6344 -0.0099 0.7729
vn 0.4714 0.0000 0.8819
vn -0.4126 0.0651 0.9086
vn -0.4714 -0.0113 0.8818
vn 0.2903 0.0000 0.9569
vn -0.5822 0.0664 0.8103
vn -0.2903 -0.0123 0.9569
vn 0.0980 0.0000 0.9952
vn -0.7295 0.0651 0.6809
vn -0.0980 -0.0128 0.9951
vn -0.0980 0.0000 0.9952
vn -0.8487 0.0614 0.5253
vn 0.0980 -0.0128 0.9951
vn -0.2903 0.0000 0.9569
vn -0.9353 0.0553 0.3496
vn 0.2903 -0.0123 0.9569
vn -0.4714 0.0000 0.8819
vn -0.9859 0.0470 0.1604
vn 0.4714 -0.0113 0.8818
vn -0.6344 0.0000 0.7730
vn -0.9987 0.0370 -0.0350
vn 0.6344 -0.0099 0.7729
vn -0.7730 0.0000 0.6344
vn -0.9731 0.0255 -0.2290
vn 0.7730 -0.0082 0.6343
vn -0.8819 0.0000 0.4714
vn -0.9101 0.0131 -0.4142
vn 0.8819 -0.0061 0.4714
vn -0.9569 0.0000 0.2903
vn -0.8121 0.0002 -0.5835
vn 0.9569 -0.0037 0.2903
vn -0.9952 0.0000 0.0980
vn -0.6829 -0.0128 -0.7304
vn 0.9952 -0.0013 0.0980
vn -0.9952 0.0000 -0.0980
vn -0.5275 -0.0253 -0.8492
vn 0.9952 0.0013 -0.0980
vn -0.9569 0.0000 -0.2903
vn -0.3518 -0.0367 -0.9354
vn 0.9569 0.0037 -0.2903
vn -0.8819 0.0000 -0.4714
vn -0.1625 -0.0468 -0.9856
vn 0.8819 0.0061 -0.4714
vn -0.7730 0.0000 -0.6344
vn 0.0329 -0.0551 -0.9979
vn 0.7730 0.0082 -0.6343
vn -0.6344 0.0000 -0.7730
vn 0.2271 -0.0613 -0.9719
vn 0.6344 0.0099 -0.7729
vn -0.4714 0.0000 -0.8819
vn 0.0980 0.0128 -0.9951
vn 0.4714 0.0113 -0.8818
vn -0.2903 0.0000 -0.9569
vn 0.9353 -0.0553 -0.3496
vn 0.4126 -0.0651 -0.9086
vn -0.0980 0.0000 -0.9952
vn 0.2903 0.0123 -0.9569
vn 0.3206 -0.0678 -0.9448
vn 0.4988 -0.0760 -0.8634
vn 0.6578 -0.0813 -0.7488
vn 0.7915 -0.0835 -0.6055
vn 0.8948 -0.0825 -0.4389
vn 0.9637 -0.0783 -0.2554
vn 0.9955 -0.0711 -0.0621
vn 0.9892 -0.0611 0.1336
vn 0.9448 -0.0489 0.3241
vn 0.8641 -0.0347 0.5022
vn 0.7501 -0.0192 0.6610
vn 0.6074 -0.0030 0.7944
vn 0.4413 0.0134 0.8972
vn 0.2583 0.0292 0.9656
vn 0.0653 0.0439 0.9969
vn -0.1301 0.0569 0.9899
vn -0.3206 0.0678 0.9448
vn -0.4988 0.0760 0.8634
vn -0.6578 0.0813 0.7488
vn -0.7915 0.0835 0.6055
vn -0.8948 0.0825 0.4389
vn -0.9637 0.0783 0.2554
vn -0.9955 0.0711 0.0621
vn -0.9892 0.0611 -0.1336
vn -0.9448 0.0489 -0.3241
vn -0.8641 0.0347 -0.5022
vn -0.7501 0.0192 -0.6610
vn -0.6074 0.0030 -0.7944
vn -0.4413 -0.0134 -0.8972
vn -0.2583 -0.0292 -0.9656
vn -0.0653 -0.0439 -0.9969
vn 0.1301 -0.0569 -0.9899
usemtl Material.003
s off
f 1/1/1 14/2/1 13/3/1
f 2/4/2 14/5/2 16/6/2
f 1/7/3 13/8/3 18/9/3
f 1/10/4 18/11/4 20/12/4
f 1/13/5 20/14/5 17/15/5
f 2/4/6 16/6/6 23/16/6
f 3/17/7 15/18/7 25/19/7
f 4/20/8 19/21/8 27/22/8
f 5/23/9 21/24/9 29/25/9
f 6/26/10 22/27/10 31/28/10
f 2/4/11 23/16/11 26/29/11
f 3/17/12 25/19/12 28/30/12
f 4/20/13 27/22/13 30/31/13
f 5/23/14 29/25/14 32/32/14
f 6/26/15 31/28/15 24/33/15
f 7/34/16 33/35/16 38/36/16
f 8/37/17 34/38/17 40/39/17
f 9/40/18 35/41/18 41/42/18
f 10/43/19 36/44/19 42/45/19
f 11/46/20 37/47/20 39/48/20
f 39/48/21 42/49/21 12/50/21
f 39/48/22 37/47/22 42/49/22
f 37/47/23 10/43/23 42/49/23
f 42/45/24 41/51/24 12/52/24
f 42/45/25 36/44/25 41/51/25
f 36/44/26 9/40/26 41/51/26
f 41/42/27 40/53/27 12/54/27
f 41/42/28 35/41/28 40/53/28
f 35/41/29 8/55/29 40/53/29
f 40/39/30 38/56/30 12/57/30
f 40/39/31 34/38/31 38/56/31
f 34/38/32 7/34/32 38/56/32
f 38/36/33 39/58/33 12/59/33
f 38/36/34 33/35/34 39/58/34
f 33/35/35 11/46/35 39/58/35
f 24/33/36 37/47/36 11/46/36
f 24/33/37 31/28/37 37/47/37
f 31/28/38 10/43/38 37/47/38
f 32/32/39 36/44/39 10/43/39
f 32/32/40 29/25/40 36/44/40
f 29/25/41 9/40/41 36/44/41
f 30/31/42 35/41/42 9/40/42
f 30/31/43 27/22/43 35/41/43
f 27/22/44 8/55/44 35/41/44
f 28/30/45 34/38/45 8/37/45
f 28/30/46 25/19/46 34/38/46
f 25/19/47 7/34/47 34/38/47
f 26/29/48 33/35/48 7/34/48
f 26/29/49 23/16/49 33/35/49
f 23/16/50 11/46/50 33/35/50
f 31/28/51 32/32/51 10/43/51
f 31/28/52 22/27/52 32/32/52
f 22/27/53 5/23/53 32/32/53
f 29/25/54 30/31/54 9/40/54
f 29/25/55 21/24/55 30/31/55
f 21/24/56 4/20/56 30/31/56
f 27/22/57 28/60/57 8/55/57
f 27/22/58 19/21/58 28/60/58
f 19/21/59 3/61/59 28/60/59
f 25/19/60 26/29/60 7/34/60
f 25/19/61 15/18/61 26/29/61
f 15/18/62 2/4/62 26/29/62
f 23/16/63 24/33/63 11/46/63
f 23/16/64 16/6/64 24/33/64
f 16/6/65 6/26/65 24/33/65
f 17/15/66 22/27/66 6/26/66
f 17/15/67 20/14/67 22/27/67
f 20/14/68 5/23/68 22/27/68
f 20/12/69 21/24/69 5/23/69
f 20/12/70 18/11/70 21/24/70
f 18/11/71 4/20/71 21/24/71
f 18/9/72 19/21/72 4/20/72
f 18/9/73 13/8/73 19/21/73
f 13/8/74 3/61/74 19/21/74
f 16/6/75 17/62/75 6/26/75
f 16/6/76 14/5/76 17/62/76
f 14/5/77 1/63/77 17/62/77
f 13/3/78 15/18/78 3/17/78
f 13/3/79 14/2/79 15/18/79
f 14/2/80 2/4/80 15/18/80
f 174/64/81 175/65/81 173/66/81
f 233/67/82 171/68/82 172/69/82
f 46/70/83 47/71/83 45/72/83
f 169/73/84 43/74/84 44/75/84
f 48/76/85 49/77/85 47/71/85
f 171/78/86 173/66/86 172/79/86
f 168/80/87 169/73/87 167/81/87
f 50/82/88 51/83/88 49/77/88
f 178/84/89 179/85/89 177/86/89
f 166/87/90 167/81/90 165/88/90
f 52/89/91 53/90/91 51/83/91
f 179/85/92 182/91/92 181/92/92
f 164/93/93 165/88/93 163/94/93
f 54/95/94 55/96/94 53/90/94
f 182/91/95 183/97/95 181/92/95
f 162/98/96 163/94/96 161/99/96
f 56/100/97 57/101/97 55/96/97
f 184/102/98 185/103/98 183/97/98
f 160/104/99 161/99/99 159/105/99
f 58/106/100 59/107/100 57/101/100
f 185/103/101 188/108/101 187/109/101
f 158/110/102 159/105/102 157/111/102
f 60/112/103 61/113/103 59/107/103
f 188/108/104 189/114/104 187/109/104
f 156/115/105 157/111/105 155/116/105
f 62/117/106 63/118/106 61/113/106
f 190/119/107 191/120/107 189/114/107
f 154/121/108 155/116/108 153/122/108
f 64/123/109 65/124/109 63/118/109
f 192/125/110 193/126/110 191/120/110
f 152/127/111 153/122/111 151/128/111
f 66/129/112 67/130/112 65/124/112
f 194/131/113 195/132/113 193/126/113
f 150/133/114 151/128/114 149/134/114
f 68/135/115 69/136/115 67/130/115
f 196/137/116 197/138/116 195/132/116
f 147/139/117 150/133/117 149/134/117
f 70/140/118 71/141/118 69/136/118
f 197/138/119 200/142/119 199/143/119
f 146/144/120 147/139/120 145/145/120
f 72/146/121 73/147/121 71/141/121
f 200/142/122 201/148/122 199/143/122
f 144/149/123 145/145/123 143/150/123
f 74/151/124 75/152/124 73/147/124
f 202/153/125 203/154/125 201/148/125
f 141/155/126 144/149/126 143/150/126
f 76/156/127 77/157/127 75/152/127
f 204/158/128 205/159/128 203/154/128
f 139/160/129 142/161/129 141/155/129
f 78/162/130 79/163/130 77/157/130
f 206/164/131 207/165/131 205/159/131
f 138/166/132 139/160/132 137/167/132
f 80/168/133 81/169/133 79/163/133
f 207/165/134 210/170/134 209/171/134
f 135/172/135 138/166/135 137/167/135
f 82/173/136 83/174/136 81/169/136
f 209/171/137 212/175/137 211/176/137
f 134/177/138 135/172/138 133/178/138
f 84/179/139 85/180/139 83/174/139
f 211/176/140 214/181/140 213/182/140
f 132/183/141 133/178/141 131/184/141
f 86/185/142 87/186/142 85/180/142
f 214/181/143 215/187/143 213/182/143
f 130/188/144 131/184/144 129/189/144
f 88/190/145 89/191/145 87/186/145
f 215/187/146 218/192/146 217/193/146
f 128/194/147 129/189/147 127/195/147
f 90/196/148 91/197/148 89/191/148
f 217/193/149 220/198/149 219/199/149
f 126/200/150 127/195/150 125/201/150
f 92/202/151 93/203/151 91/197/151
f 219/199/152 222/204/152 221/205/152
f 124/206/153 125/201/153 123/207/153
f 94/208/154 95/209/154 93/203/154
f 222/204/155 223/210/155 221/205/155
f 122/211/156 123/207/156 121/212/156
f 96/213/157 97/214/157 95/209/157
f 223/210/158 226/215/158 225/216/158
f 120/217/159 121/212/159 119/218/159
f 98/219/160 99/220/160 97/214/160
f 226/215/161 227/221/161 225/216/161
f 118/222/162 119/218/162 117/223/162
f 100/224/163 101/225/163 99/220/163
f 228/226/164 229/227/164 227/221/164
f 115/228/165 118/222/165 117/223/165
f 102/229/166 103/230/166 101/225/166
f 230/231/167 231/232/167 229/227/167
f 113/233/168 116/234/168 115/228/168
f 104/235/169 105/236/169 103/230/169
f 43/237/170 109/238/170 44/239/170
f 112/240/171 113/233/171 111/241/171
f 106/242/172 107/243/172 105/236/172
f 175/65/173 178/84/173 177/86/173
f 232/244/174 233/67/174 231/232/174
f 108/245/175 45/246/175 107/243/175
f 110/247/176 111/241/176 109/238/176
f 235/248/177 238/249/177 237/250/177
f 237/250/178 240/251/178 239/252/178
f 239/252/179 242/253/179 241/254/179
f 241/254/180 244/255/180 243/256/180
f 244/255/181 245/257/181 243/256/181
f 246/258/182 247/259/182 245/257/182
f 248/260/183 249/261/183 247/259/183
f 250/262/184 251/263/184 249/261/184
f 252/264/185 253/265/185 251/263/185
f 254/266/186 255/267/186 253/265/186
f 255/267/187 258/268/187 257/269/187
f 258/268/188 259/270/188 257/269/188
f 260/271/189 261/272/189 259/270/189
f 261/272/190 264/273/190 263/274/190
f 264/273/191 265/275/191 263/274/191
f 266/276/192 267/277/192 265/275/192
f 267/277/193 270/278/193 269/279/193
f 270/278/194 271/280/194 269/279/194
f 272/281/195 273/282/195 271/280/195
f 274/283/196 275/284/196 273/282/196
f 275/284/197 278/285/197 277/286/197
f 278/285/198 279/287/198 277/286/198
f 280/288/199 281/289/199 279/287/199
f 282/290/200 283/291/200 281/289/200
f 283/291/201 286/292/201 285/293/201
f 286/292/202 287/294/202 285/293/202
f 288/295/203 289/296/203 287/294/203
f 290/297/204 291/298/204 289/296/204
f 292/299/205 293/300/205 291/298/205
f 293/300/206 296/301/206 295/302/206
f 295/302/207 298/303/207 297/304/207
f 298/303/208 235/305/208 297/304/208
f 174/64/81 176/306/81 175/65/81
f 233/67/82 234/307/82 171/68/82
f 46/70/83 48/76/83 47/71/83
f 169/73/84 170/308/84 43/74/84
f 48/76/85 50/82/85 49/77/85
f 171/78/86 174/64/86 173/66/86
f 168/80/87 170/308/87 169/73/87
f 50/82/88 52/89/88 51/83/88
f 178/84/89 180/309/89 179/85/89
f 166/87/90 168/80/90 167/81/90
f 52/89/91 54/95/91 53/90/91
f 179/85/92 180/309/92 182/91/92
f 164/93/93 166/87/93 165/88/93
f 54/95/94 56/100/94 55/96/94
f 182/91/95 184/102/95 183/97/95
f 162/98/96 164/93/96 163/94/96
f 56/100/97 58/106/97 57/101/97
f 184/102/98 186/310/98 185/103/98
f 160/104/99 162/98/99 161/99/99
f 58/106/100 60/112/100 59/107/100
f 185/103/101 186/310/101 188/108/101
f 158/110/102 160/104/102 159/105/102
f 60/112/103 62/117/103 61/113/103
f 188/108/104 190/119/104 189/114/104
f 156/115/105 158/110/105 157/111/105
f 62/117/106 64/123/106 63/118/106
f 190/119/107 192/125/107 191/120/107
f 154/121/108 156/115/108 155/116/108
f 64/123/109 66/129/109 65/124/109
f 192/125/110 194/131/110 193/126/110
f 152/127/111 154/121/111 153/122/111
f 66/129/112 68/135/112 67/130/112
f 194/131/113 196/137/113 195/132/113
f 150/133/114 152/127/114 151/128/114
f 68/135/115 70/140/115 69/136/115
f 196/137/116 198/311/116 197/138/116
f 147/139/117 148/312/117 150/133/117
f 70/140/118 72/146/118 71/141/118
f 197/138/119 198/311/119 200/142/119
f 146/144/120 148/312/120 147/139/120
f 72/146/121 74/151/121 73/147/121
f 200/142/122 202/153/122 201/148/122
f 144/149/123 146/144/123 145/145/123
f 74/151/124 76/156/124 75/152/124
f 202/153/125 204/158/125 203/154/125
f 141/155/126 142/161/126 144/149/126
f 76/156/127 78/162/127 77/157/127
f 204/158/128 206/164/128 205/159/128
f 139/160/129 140/313/129 142/161/129
f 78/162/130 80/168/130 79/163/130
f 206/164/131 208/314/131 207/165/131
f 138/166/132 140/313/132 139/160/132
f 80/168/133 82/173/133 81/169/133
f 207/165/134 208/314/134 210/170/134
f 135/172/135 136/315/135 138/166/135
f 82/173/136 84/179/136 83/174/136
f 209/171/137 210/170/137 212/175/137
f 134/177/138 136/315/138 135/172/138
f 84/179/139 86/185/139 85/180/139
f 211/176/140 212/175/140 214/181/140
f 132/183/141 134/177/141 133/178/141
f 86/185/142 88/190/142 87/186/142
f 214/181/143 216/316/143 215/187/143
f 130/188/144 132/183/144 131/184/144
f 88/190/145 90/196/145 89/191/145
f 215/187/146 216/316/146 218/192/146
f 128/194/147 130/188/147 129/189/147
f 90/196/148 92/202/148 91/197/148
f 217/193/149 218/192/149 220/198/149
f 126/200/150 128/194/150 127/195/150
f 92/202/151 94/208/151 93/203/151
f 219/199/152 220/198/152 222/204/152
f 124/206/153 126/200/153 125/201/153
f 94/208/154 96/213/154 95/209/154
f 222/204/155 224/317/155 223/210/155
f 122/211/156 124/206/156 123/207/156
f 96/213/157 98/219/157 97/214/157
f 223/210/158 224/317/158 226/215/158
f 120/217/159 122/211/159 121/212/159
f 98/219/160 100/224/160 99/220/160
f 226/215/161 228/226/161 227/221/161
f 118/222/162 120/217/162 119/218/162
f 100/224/163 102/229/163 101/225/163
f 228/226/164 230/231/164 229/227/164
f 115/228/165 116/234/165 118/222/165
f 102/229/166 104/235/166 103/230/166
f 230/231/167 232/244/167 231/232/167
f 113/233/168 114/318/168 116/234/168
f 104/235/169 106/242/169 105/236/169
f 43/237/170 110/247/170 109/238/170
f 112/240/171 114/318/171 113/233/171
f 106/242/172 108/245/172 107/243/172
f 175/65/173 176/306/173 178/84/173
f 232/244/174 234/307/174 233/67/174
f 108/245/175 46/319/175 45/246/175
f 110/247/176 112/240/176 111/241/176
f 235/248/177 236/320/177 238/249/177
f 237/250/178 238/249/178 240/251/178
f 239/252/179 240/251/179 242/253/179
f 241/254/180 242/253/180 244/255/180
f 244/255/181 246/258/181 245/257/181
f 246/258/182 248/260/182 247/259/182
f 248/260/183 250/262/183 249/261/183
f 250/262/184 252/264/184 251/263/184
f 252/264/185 254/266/185 253/265/185
f 254/266/186 256/321/186 255/267/186
f 255/267/187 256/321/187 258/268/187
f 258/268/188 260/271/188 259/270/188
f 260/271/189 262/322/189 261/272/189
f 261/272/190 262/322/190 264/273/190
f 264/273/191 266/276/191 265/275/191
f 266/276/192 268/323/192 267/277/192
f 267/277/193 268/323/193 270/278/193
f 270/278/194 272/281/194 271/280/194
f 272/281/195 274/283/195 273/282/195
f 274/283/196 276/324/196 275/284/196
f 275/284/197 276/324/197 278/285/197
f 278/285/198 280/288/198 279/287/198
f 280/288/199 282/290/199 281/289/199
f 282/290/200 284/325/200 283/291/200
f 283/291/201 284/325/201 286/292/201
f 286/292/202 288/295/202 287/294/202
f 288/295/203 290/297/203 289/296/203
f 290/297/204 292/299/204 291/298/204
f 292/299/205 294/326/205 293/300/205
f 293/300/206 294/326/206 296/301/206
f 295/302/207 296/301/207 298/303/207
f 298/303/208 236/327/208 235/305/208
